{
    "Users": true,
    "Commissions": true,
    "Policy": true,
    "Test": true,
    "Permissions": true,
    "Permission": true,
    "Enabe": true,
    "Media": true,
    "Theme": true,
    "Link": true,
    "Language": true,
    "Form": true,
    "Email": true,
    "SEO": true,
    "Shortcode": true,
    "Slider": true,
    "News": true,
    "Project": true,
    "Property": true,
    "Page": true,
    "Comment": true,
    "Menu": true,
    "System": true,
    "Popup": true,
    "Log": true,
    "Location": true
}